[0121/152006.510:INFO:CONSOLE(26)] "Uncaught ReferenceError: setPrivacyLink is not defined", source: https://idmsa.apple.com/IDMSWebAuth/auth?oauth_token=OATTKNbe56937c-a8db-4eeb-86f7-fb6ead482ad99058d238eb241cd28f96a446d95ca8e483fbf983efc933fea6e1c5fd285294d2dc5708bab3d2109ce4bff32f4de288552aa1f21638d790018d47d5a23708730d0038074fc3b28c60c5c38bf694bdd848585a47 (26)
[0121/152009.938:INFO:CONSOLE(26)] "Uncaught ReferenceError: setPrivacyLink is not defined", source: https://idmsa.apple.com/IDMSWebAuth/auth?oauth_token=OATTKNbe56937c-a8db-4eeb-86f7-fb6ead482ad99058d238eb241cd28f96a446d95ca8e483fbf983efc933fea6e1c5fd285294d2dc5708bab3d2109ce4bff32f4de288552aa1f21638d790018d47d5a23708730d0038074fc3b28c60c5c38bf694bdd848585a47 (26)
[0121/152013.194:ERROR:latency_info.cc(144)] Surface::TakeLatencyInfoFromFrame, LatencyInfo vector size 101 is too big.
[0121/152018.693:ERROR:latency_info.cc(144)] Surface::TakeLatencyInfoFromFrame, LatencyInfo vector size 101 is too big.
[0121/152022.086:ERROR:latency_info.cc(144)] Surface::TakeLatencyInfoFromFrame, LatencyInfo vector size 101 is too big.
[0121/152025.452:ERROR:latency_info.cc(144)] Surface::TakeLatencyInfoFromFrame, LatencyInfo vector size 101 is too big.
[0121/152028.855:ERROR:latency_info.cc(144)] Surface::TakeLatencyInfoFromFrame, LatencyInfo vector size 101 is too big.
[0121/152036.194:INFO:CONSOLE(26)] "Uncaught ReferenceError: setPrivacyLink is not defined", source: https://idmsa.apple.com/IDMSWebAuth/auth?oauth_token=OATTKNbf8d8fbb-35c7-4ad2-8706-a03d86dec948d5e7d5831bc2c87c660ba575722fd90571f20c1c4030c470bc68146cc458e9da91fb7a642a90e2502d12992acd6e865213e477bd4e263ca62c846e7bc0d56e69918b8b84662e1b0bb9b23f7cf128e27e585a47 (26)
